{
    "baseURL":"https://tms.ameyo.net:8786/Ameyo_TMS/public",
    "baseURL2":"http://127.0.0.1:8000",
    "ccId":"1",
    "pollingInterval":30000,
    "dataFetchInterval":30000,
    "apiTimeout":20000
}