{
  "files": {
    "main.css": "/static/css/main.3b8a6bb6.chunk.css",
    "main.js": "/static/js/main.54ac676c.chunk.js",
    "main.js.map": "/static/js/main.54ac676c.chunk.js.map",
    "runtime-main.js": "/static/js/runtime-main.57e65960.js",
    "runtime-main.js.map": "/static/js/runtime-main.57e65960.js.map",
    "static/js/2.a7ea706d.chunk.js": "/static/js/2.a7ea706d.chunk.js",
    "static/js/2.a7ea706d.chunk.js.map": "/static/js/2.a7ea706d.chunk.js.map",
    "index.html": "/index.html",
    "precache-manifest.5e23aa55b79c3249afc1ac84858471e0.js": "/precache-manifest.5e23aa55b79c3249afc1ac84858471e0.js",
    "service-worker.js": "/service-worker.js",
    "static/css/main.3b8a6bb6.chunk.css.map": "/static/css/main.3b8a6bb6.chunk.css.map",
    "static/js/2.a7ea706d.chunk.js.LICENSE.txt": "/static/js/2.a7ea706d.chunk.js.LICENSE.txt",
    "static/media/ellipsis-white.svg": "/static/media/ellipsis-white.ffaef633.svg"
  },
  "entrypoints": [
    "static/js/runtime-main.57e65960.js",
    "static/js/2.a7ea706d.chunk.js",
    "static/css/main.3b8a6bb6.chunk.css",
    "static/js/main.54ac676c.chunk.js"
  ]
}